<?xml version="1.0" encoding="UTF-8"?>
<testng-results skipped="0" failed="3" ignored="0" total="5" passed="2">
  <reporter-output>
  </reporter-output>
  <suite name="Demo Web App test suite" duration-ms="125467" started-at="2021-05-25T13:30:03Z" finished-at="2021-05-25T13:32:09Z">
    <groups>
    </groups>
    <test name="LoginTests" duration-ms="117863" started-at="2021-05-25T13:30:03Z" finished-at="2021-05-25T13:32:01Z">
      <class name="Tests.UserLoginTests">
        <test-method status="PASS" signature="LaunchApplication()[pri:0, instance:Tests.UserLoginTests@7823a2f9]" name="LaunchApplication" is-config="true" duration-ms="43380" started-at="2021-05-25T13:30:04Z" finished-at="2021-05-25T13:30:47Z">
          <reporter-output>
          </reporter-output>
        </test-method> <!-- LaunchApplication -->
        <test-method status="PASS" signature="ClientLoginTest()[pri:0, instance:Tests.UserLoginTests@7823a2f9]" name="ClientLoginTest" duration-ms="9078" started-at="2021-05-25T13:30:47Z" finished-at="2021-05-25T13:30:56Z">
          <reporter-output>
          </reporter-output>
        </test-method> <!-- ClientLoginTest -->
        <test-method status="PASS" signature="tearDown()[pri:0, instance:Tests.UserLoginTests@7823a2f9]" name="tearDown" is-config="true" duration-ms="11525" started-at="2021-05-25T13:30:57Z" finished-at="2021-05-25T13:31:08Z">
          <reporter-output>
          </reporter-output>
        </test-method> <!-- tearDown -->
        <test-method status="PASS" signature="LaunchApplication()[pri:0, instance:Tests.UserLoginTests@7823a2f9]" name="LaunchApplication" is-config="true" duration-ms="21845" started-at="2021-05-25T13:31:08Z" finished-at="2021-05-25T13:31:30Z">
          <reporter-output>
          </reporter-output>
        </test-method> <!-- LaunchApplication -->
        <test-method status="FAIL" signature="DesignerLoginTest()[pri:0, instance:Tests.UserLoginTests@7823a2f9]" name="DesignerLoginTest" duration-ms="7291" started-at="2021-05-25T13:31:30Z" finished-at="2021-05-25T13:31:37Z">
          <exception class="java.lang.AssertionError">
            <message>
              <![CDATA[expected [true] but found [false]]]>
            </message>
            <full-stacktrace>
              <![CDATA[java.lang.AssertionError: expected [true] but found [false]
at org.testng.Assert.fail(Assert.java:96)
at org.testng.Assert.failNotEquals(Assert.java:776)
at org.testng.Assert.assertTrue(Assert.java:44)
at org.testng.Assert.assertTrue(Assert.java:54)
at reusableComponents.ActionEngine.assertEqualsString_custom(ActionEngine.java:136)
at Tests.UserLoginTests.DesignerLoginTest(UserLoginTests.java:35)
at sun.reflect.NativeMethodAccessorImpl.invoke0(Native Method)
at sun.reflect.NativeMethodAccessorImpl.invoke(NativeMethodAccessorImpl.java:62)
at sun.reflect.DelegatingMethodAccessorImpl.invoke(DelegatingMethodAccessorImpl.java:43)
at java.lang.reflect.Method.invoke(Method.java:498)
at org.testng.internal.MethodInvocationHelper.invokeMethod(MethodInvocationHelper.java:124)
at org.testng.internal.Invoker.invokeMethod(Invoker.java:583)
at org.testng.internal.Invoker.invokeTestMethod(Invoker.java:719)
at org.testng.internal.Invoker.invokeTestMethods(Invoker.java:989)
at org.testng.internal.TestMethodWorker.invokeTestMethods(TestMethodWorker.java:125)
at org.testng.internal.TestMethodWorker.run(TestMethodWorker.java:109)
at org.testng.TestRunner.privateRun(TestRunner.java:648)
at org.testng.TestRunner.run(TestRunner.java:505)
at org.testng.SuiteRunner.runTest(SuiteRunner.java:455)
at org.testng.SuiteRunner.access$000(SuiteRunner.java:40)
at org.testng.SuiteRunner$SuiteWorker.run(SuiteRunner.java:489)
at org.testng.internal.thread.ThreadUtil$1.call(ThreadUtil.java:52)
at java.util.concurrent.FutureTask.run(FutureTask.java:266)
at java.util.concurrent.ThreadPoolExecutor.runWorker(ThreadPoolExecutor.java:1149)
at java.util.concurrent.ThreadPoolExecutor$Worker.run(ThreadPoolExecutor.java:624)
at java.lang.Thread.run(Thread.java:748)
]]>
            </full-stacktrace>
          </exception> <!-- java.lang.AssertionError -->
          <reporter-output>
          </reporter-output>
        </test-method> <!-- DesignerLoginTest -->
        <test-method status="PASS" signature="tearDown()[pri:0, instance:Tests.UserLoginTests@7823a2f9]" name="tearDown" is-config="true" duration-ms="1862" started-at="2021-05-25T13:31:39Z" finished-at="2021-05-25T13:31:40Z">
          <reporter-output>
          </reporter-output>
        </test-method> <!-- tearDown -->
        <test-method status="PASS" signature="LaunchApplication()[pri:0, instance:Tests.UserLoginTests@7823a2f9]" name="LaunchApplication" is-config="true" duration-ms="12067" started-at="2021-05-25T13:31:40Z" finished-at="2021-05-25T13:31:53Z">
          <reporter-output>
          </reporter-output>
        </test-method> <!-- LaunchApplication -->
        <test-method status="PASS" signature="ManagerLoginTest()[pri:0, instance:Tests.UserLoginTests@7823a2f9]" name="ManagerLoginTest" duration-ms="7262" started-at="2021-05-25T13:31:53Z" finished-at="2021-05-25T13:32:00Z">
          <reporter-output>
          </reporter-output>
        </test-method> <!-- ManagerLoginTest -->
        <test-method status="PASS" signature="tearDown()[pri:0, instance:Tests.UserLoginTests@7823a2f9]" name="tearDown" is-config="true" duration-ms="1364" started-at="2021-05-25T13:32:00Z" finished-at="2021-05-25T13:32:01Z">
          <reporter-output>
          </reporter-output>
        </test-method> <!-- tearDown -->
      </class> <!-- Tests.UserLoginTests -->
    </test> <!-- LoginTests -->
    <test name="DataDriven Tests" duration-ms="125467" started-at="2021-05-25T13:30:03Z" finished-at="2021-05-25T13:32:09Z">
      <class name="Tests.TestCase">
        <test-method status="PASS" signature="LaunchApplication()[pri:0, instance:Tests.TestCase@27ff5d15]" name="LaunchApplication" is-config="true" duration-ms="43068" started-at="2021-05-25T13:30:04Z" finished-at="2021-05-25T13:30:47Z">
          <reporter-output>
          </reporter-output>
        </test-method> <!-- LaunchApplication -->
        <test-method status="FAIL" signature="TaskCreationTest(java.lang.Object)[pri:0, instance:Tests.TestCase@27ff5d15]" name="TaskCreationTest" duration-ms="51779" started-at="2021-05-25T13:30:47Z" data-provider="taskCreationData" finished-at="2021-05-25T13:31:39Z">
          <params>
            <param index="0">
              <value>
                <![CDATA[{UserName=administrator@localhost.com, TaskPriority=Medum, Sr No=1, Label=Task, AttachmentFilePath=C:\Users\Akash\OneDrive\Desktop\New Text Document.txt, ProjectToCreateTaskUnder=Test Project 1, TaskStatus=Open, EndDate=2020-09-29, Test Case Name=CreateTask with Open Status, StartDate=2020-09-28, TaskName=dev1, TaskType=Change Priority Rate (Hourly rate $25.00), Test Case Description=nothing, Password=administrator, CurrentProgress=0.05}]]>
              </value>
            </param>
          </params>
          <exception class="java.lang.AssertionError">
            <message>
              <![CDATA[java.lang.NullPointerException expected [true] but found [false]]]>
            </message>
            <full-stacktrace>
              <![CDATA[java.lang.AssertionError: java.lang.NullPointerException expected [true] but found [false]
at org.testng.Assert.fail(Assert.java:96)
at org.testng.Assert.failNotEquals(Assert.java:776)
at org.testng.Assert.assertTrue(Assert.java:44)
at reusableComponents.ActionEngine.assertEqualsString_custom(ActionEngine.java:141)
at Tests.TestCase.TaskCreationTest(TestCase.java:60)
at sun.reflect.NativeMethodAccessorImpl.invoke0(Native Method)
at sun.reflect.NativeMethodAccessorImpl.invoke(NativeMethodAccessorImpl.java:62)
at sun.reflect.DelegatingMethodAccessorImpl.invoke(DelegatingMethodAccessorImpl.java:43)
at java.lang.reflect.Method.invoke(Method.java:498)
at org.testng.internal.MethodInvocationHelper.invokeMethod(MethodInvocationHelper.java:124)
at org.testng.internal.Invoker.invokeMethod(Invoker.java:583)
at org.testng.internal.Invoker.invokeTestMethod(Invoker.java:719)
at org.testng.internal.Invoker.invokeTestMethods(Invoker.java:989)
at org.testng.internal.TestMethodWorker.invokeTestMethods(TestMethodWorker.java:125)
at org.testng.internal.TestMethodWorker.run(TestMethodWorker.java:109)
at org.testng.TestRunner.privateRun(TestRunner.java:648)
at org.testng.TestRunner.run(TestRunner.java:505)
at org.testng.SuiteRunner.runTest(SuiteRunner.java:455)
at org.testng.SuiteRunner.access$000(SuiteRunner.java:40)
at org.testng.SuiteRunner$SuiteWorker.run(SuiteRunner.java:489)
at org.testng.internal.thread.ThreadUtil$1.call(ThreadUtil.java:52)
at java.util.concurrent.FutureTask.run(FutureTask.java:266)
at java.util.concurrent.ThreadPoolExecutor.runWorker(ThreadPoolExecutor.java:1149)
at java.util.concurrent.ThreadPoolExecutor$Worker.run(ThreadPoolExecutor.java:624)
at java.lang.Thread.run(Thread.java:748)
]]>
            </full-stacktrace>
          </exception> <!-- java.lang.AssertionError -->
          <reporter-output>
          </reporter-output>
        </test-method> <!-- TaskCreationTest -->
        <test-method status="PASS" signature="tearDown()[pri:0, instance:Tests.TestCase@27ff5d15]" name="tearDown" is-config="true" duration-ms="2104" started-at="2021-05-25T13:31:39Z" finished-at="2021-05-25T13:31:41Z">
          <reporter-output>
          </reporter-output>
        </test-method> <!-- tearDown -->
        <test-method status="PASS" signature="LaunchApplication()[pri:0, instance:Tests.TestCase@27ff5d15]" name="LaunchApplication" is-config="true" duration-ms="11662" started-at="2021-05-25T13:31:41Z" finished-at="2021-05-25T13:31:53Z">
          <reporter-output>
          </reporter-output>
        </test-method> <!-- LaunchApplication -->
        <test-method status="FAIL" signature="TaskCreationTest(java.lang.Object)[pri:0, instance:Tests.TestCase@27ff5d15]" name="TaskCreationTest" duration-ms="15100" started-at="2021-05-25T13:31:53Z" data-provider="taskCreationData" finished-at="2021-05-25T13:32:08Z">
          <params>
            <param index="0">
              <value>
                <![CDATA[{UserName=administrator@localhost.com, TaskPriority=Urgent, Sr No=2, Label=Bug, AttachmentFilePath=C:\Users\Akash\OneDrive\Desktop\New Text Document.txt, ProjectToCreateTaskUnder=Test Project 2, TaskStatus=Re-opened, EndDate=2020-09-30, Test Case Name=Create Defect wtith Reopen Status, StartDate=2020-09-28, TaskName=dev2, TaskType=Defects (Hourly rate $0.00), Test Case Description=nothing, Password=administrator, CurrentProgress=0.95}]]>
              </value>
            </param>
          </params>
          <exception class="java.lang.AssertionError">
            <message>
              <![CDATA[java.lang.NullPointerException expected [true] but found [false]]]>
            </message>
            <full-stacktrace>
              <![CDATA[java.lang.AssertionError: java.lang.NullPointerException expected [true] but found [false]
at org.testng.Assert.fail(Assert.java:96)
at org.testng.Assert.failNotEquals(Assert.java:776)
at org.testng.Assert.assertTrue(Assert.java:44)
at reusableComponents.ActionEngine.assertEqualsString_custom(ActionEngine.java:141)
at Tests.TestCase.TaskCreationTest(TestCase.java:60)
at sun.reflect.NativeMethodAccessorImpl.invoke0(Native Method)
at sun.reflect.NativeMethodAccessorImpl.invoke(NativeMethodAccessorImpl.java:62)
at sun.reflect.DelegatingMethodAccessorImpl.invoke(DelegatingMethodAccessorImpl.java:43)
at java.lang.reflect.Method.invoke(Method.java:498)
at org.testng.internal.MethodInvocationHelper.invokeMethod(MethodInvocationHelper.java:124)
at org.testng.internal.Invoker.invokeMethod(Invoker.java:583)
at org.testng.internal.Invoker.invokeTestMethod(Invoker.java:719)
at org.testng.internal.Invoker.invokeTestMethods(Invoker.java:989)
at org.testng.internal.TestMethodWorker.invokeTestMethods(TestMethodWorker.java:125)
at org.testng.internal.TestMethodWorker.run(TestMethodWorker.java:109)
at org.testng.TestRunner.privateRun(TestRunner.java:648)
at org.testng.TestRunner.run(TestRunner.java:505)
at org.testng.SuiteRunner.runTest(SuiteRunner.java:455)
at org.testng.SuiteRunner.access$000(SuiteRunner.java:40)
at org.testng.SuiteRunner$SuiteWorker.run(SuiteRunner.java:489)
at org.testng.internal.thread.ThreadUtil$1.call(ThreadUtil.java:52)
at java.util.concurrent.FutureTask.run(FutureTask.java:266)
at java.util.concurrent.ThreadPoolExecutor.runWorker(ThreadPoolExecutor.java:1149)
at java.util.concurrent.ThreadPoolExecutor$Worker.run(ThreadPoolExecutor.java:624)
at java.lang.Thread.run(Thread.java:748)
]]>
            </full-stacktrace>
          </exception> <!-- java.lang.AssertionError -->
          <reporter-output>
          </reporter-output>
        </test-method> <!-- TaskCreationTest -->
        <test-method status="PASS" signature="tearDown()[pri:0, instance:Tests.TestCase@27ff5d15]" name="tearDown" is-config="true" duration-ms="807" started-at="2021-05-25T13:32:08Z" finished-at="2021-05-25T13:32:09Z">
          <reporter-output>
          </reporter-output>
        </test-method> <!-- tearDown -->
      </class> <!-- Tests.TestCase -->
    </test> <!-- DataDriven Tests -->
  </suite> <!-- Demo Web App test suite -->
</testng-results>
